[
    {
        "id": "1",
        "annee": "Annee1",
        "nom": "Nom1",
        "film": "Film1",
        "prix": "Prix1"
    },
    {
        "id": "2",
        "annee": "Annee2",
        "nom": "Nom2",
        "film": "Film2",
        "prix": "Prix2"
    },
    {
        "id": "3",
        "annee": "Annee3",
        "nom": "Nom3",
        "film": "Film3",
        "prix": "Prix3"
    },
    {
        "id": "4",
        "annee": "Annee4",
        "nom": "Nom4",
        "film": "Film4",
        "prix": "Prix4"
    },
    {
        "id": "5",
        "annee": "Annee5",
        "nom": "Nom5",
        "film": "Film5",
        "prix": "Prix5"
    },
    {
        "id": "6",
        "annee": "Annee6",
        "nom": "Nom6",
        "film": "Film6",
        "prix": "Prix6"
    },
    {
        "id": "7",
        "annee": "Annee7",
        "nom": "Nom7",
        "film": "Film7",
        "prix": "Prix7"
    },
    {
        "id": "8",
        "annee": "Annee8",
        "nom": "Nom8",
        "film": "Film8",
        "prix": "Prix8"
    },
    {
        "id": "9",
        "annee": "Annee9",
        "nom": "Nom9",
        "film": "Film9",
        "prix": "Prix9"
    },
    {
        "id": "10",
        "annee": "Annee10",
        "nom": "Nom10",
        "film": "Film10",
        "prix": "Prix10"
    }
]